[{"episodes_info": "", "rate": "8.1", "cover_x": 815, "title": "星期四", "url": "https://movie.douban.com/subject/35774719/", "playable": false, "cover_img": ["https://img9.doubanio.com/view/photo/s_ratio_poster/public/p2868457745.jpg"], "cover": "https://img9.doubanio.com/view/photo/s_ratio_poster/public/p2868457745.jpg", "id": "35774719", "cover_y": 1164, "is_new": true, "directed_by": "毕查德·汉巴塔"}
,{"episodes_info": "", "rate": "8.0", "cover_x": 2000, "title": "天鹅挽歌", "url": "https://movie.douban.com/subject/35258381/", "playable": false, "cover_img": ["https://img9.doubanio.com/view/photo/s_ratio_poster/public/p2717809625.jpg"], "cover": "https://img9.doubanio.com/view/photo/s_ratio_poster/public/p2717809625.jpg", "id": "35258381", "cover_y": 3000, "is_new": false, "directed_by": "本杰明·克利里"}
,{"episodes_info": "", "rate": "6.9", "cover_x": 4320, "title": "甘草披萨", "url": "https://movie.douban.com/subject/34888057/", "playable": false, "cover_img": ["https://img1.doubanio.com/view/photo/s_ratio_poster/public/p2687662638.jpg"], "cover": "https://img1.doubanio.com/view/photo/s_ratio_poster/public/p2687662638.jpg", "id": "34888057", "cover_y": 6400, "is_new": false, "directed_by": "保罗·托马斯·安德森"}
,{"episodes_info": "", "rate": "8.3", "cover_x": 8268, "title": "雄狮少年", "url": "https://movie.douban.com/subject/35144311/", "playable": true, "cover_img": ["https://img1.doubanio.com/view/photo/s_ratio_poster/public/p2702755317.jpg"], "cover": "https://img1.doubanio.com/view/photo/s_ratio_poster/public/p2702755317.jpg", "id": "35144311", "cover_y": 11576, "is_new": false, "directed_by": "孙海鹏"}
,{"episodes_info": "", "rate": "7.8", "cover_x": 4048, "title": "法兰西特派", "url": "https://movie.douban.com/subject/30300279/", "playable": false, "cover_img": ["https://img9.doubanio.com/view/photo/s_ratio_poster/public/p2586398074.jpg"], "cover": "https://img9.doubanio.com/view/photo/s_ratio_poster/public/p2586398074.jpg", "id": "30300279", "cover_y": 6285, "is_new": false, "directed_by": "韦斯·安德森"}
,{"episodes_info": "", "rate": "7.3", "cover_x": 2430, "title": "杨之后", "url": "https://movie.douban.com/subject/30475837/", "playable": false, "cover_img": ["https://img3.doubanio.com/view/photo/s_ratio_poster/public/p2867419800.jpg"], "cover": "https://img3.doubanio.com/view/photo/s_ratio_poster/public/p2867419800.jpg", "id": "30475837", "cover_y": 3600, "is_new": false, "directed_by": "郭共达"}
,{"episodes_info": "", "rate": "6.8", "cover_x": 2765, "title": "玉面情魔", "url": "https://movie.douban.com/subject/27605105/", "playable": false, "cover_img": ["https://img1.doubanio.com/view/photo/s_ratio_poster/public/p2757579107.jpg"], "cover": "https://img1.doubanio.com/view/photo/s_ratio_poster/public/p2757579107.jpg", "id": "27605105", "cover_y": 4096, "is_new": false, "directed_by": "吉尔莫·德尔·托罗"}
,{"episodes_info": "", "rate": "5.3", "cover_x": 770, "title": "王牌特工：源起", "url": "https://movie.douban.com/subject/27038228/", "playable": false, "cover_img": ["https://img1.doubanio.com/view/photo/s_ratio_poster/public/p2614322167.jpg"], "cover": "https://img1.doubanio.com/view/photo/s_ratio_poster/public/p2614322167.jpg", "id": "27038228", "cover_y": 1100, "is_new": false, "directed_by": "马修·沃恩"}
,{"episodes_info": "", "rate": "7.6", "cover_x": 1448, "title": "瀑布", "url": "https://movie.douban.com/subject/35242938/", "playable": false, "cover_img": ["https://img2.doubanio.com/view/photo/s_ratio_poster/public/p2678037153.jpg"], "cover": "https://img2.doubanio.com/view/photo/s_ratio_poster/public/p2678037153.jpg", "id": "35242938", "cover_y": 2048, "is_new": false, "directed_by": "钟孟宏"}
,{"episodes_info": "", "rate": "6.3", "cover_x": 1334, "title": "新鲜", "url": "https://movie.douban.com/subject/35202363/", "playable": false, "cover_img": ["https://img9.doubanio.com/view/photo/s_ratio_poster/public/p2868322956.jpg"], "cover": "https://img9.doubanio.com/view/photo/s_ratio_poster/public/p2868322956.jpg", "id": "35202363", "cover_y": 2000, "is_new": false, "directed_by": "米米·凯夫"}
,{"episodes_info": "", "rate": "8.4", "cover_x": 720, "title": "芬奇", "url": "https://movie.douban.com/subject/26897885/", "playable": true, "cover_img": ["https://img1.doubanio.com/view/photo/s_ratio_poster/public/p2721066869.jpg"], "cover": "https://img1.doubanio.com/view/photo/s_ratio_poster/public/p2721066869.jpg", "id": "26897885", "cover_y": 1080, "is_new": false, "directed_by": "米格尔·萨普什尼克"}
,{"episodes_info": "", "rate": "7.4", "cover_x": 1080, "title": "美国女孩", "url": "https://movie.douban.com/subject/30359376/", "playable": false, "cover_img": ["https://img2.doubanio.com/view/photo/s_ratio_poster/public/p2703935581.jpg"], "cover": "https://img2.doubanio.com/view/photo/s_ratio_poster/public/p2703935581.jpg", "id": "30359376", "cover_y": 1544, "is_new": false, "directed_by": "阮凤仪"}
,{"episodes_info": "", "rate": "7.9", "cover_x": 595, "title": "世界上最糟糕的人", "url": "https://movie.douban.com/subject/34447553/", "playable": false, "cover_img": ["https://img9.doubanio.com/view/photo/s_ratio_poster/public/p2668815075.jpg"], "cover": "https://img9.doubanio.com/view/photo/s_ratio_poster/public/p2668815075.jpg", "id": "34447553", "cover_y": 842, "is_new": false, "directed_by": "约阿希姆·提尔"}
,{"episodes_info": "", "rate": "7.8", "cover_x": 1500, "title": "犬之力", "url": "https://movie.douban.com/subject/33437152/", "playable": false, "cover_img": ["https://img1.doubanio.com/view/photo/s_ratio_poster/public/p2678298618.jpg"], "cover": "https://img1.doubanio.com/view/photo/s_ratio_poster/public/p2678298618.jpg", "id": "33437152", "cover_y": 2222, "is_new": false, "directed_by": "简·坎皮恩"}
,{"episodes_info": "", "rate": "7.9", "cover_x": 2000, "title": "驾驶我的车", "url": "https://movie.douban.com/subject/35235502/", "playable": false, "cover_img": ["https://img2.doubanio.com/view/photo/s_ratio_poster/public/p2639821491.jpg"], "cover": "https://img2.doubanio.com/view/photo/s_ratio_poster/public/p2639821491.jpg", "id": "35235502", "cover_y": 2829, "is_new": false, "directed_by": "滨口龙介"}
,{"episodes_info": "", "rate": "6.3", "cover_x": 1500, "title": "亚当计划", "url": "https://movie.douban.com/subject/34970181/", "playable": false, "cover_img": ["https://img2.doubanio.com/view/photo/s_ratio_poster/public/p2869545761.jpg"], "cover": "https://img2.doubanio.com/view/photo/s_ratio_poster/public/p2869545761.jpg", "id": "34970181", "cover_y": 2222, "is_new": false, "directed_by": "肖恩·利维"}
,{"episodes_info": "", "rate": "8.3", "cover_x": 400, "title": "烈日阳光", "url": "https://movie.douban.com/subject/35584330/", "playable": false, "cover_img": ["https://img9.doubanio.com/view/photo/s_ratio_poster/public/p2679701864.jpg"], "cover": "https://img9.doubanio.com/view/photo/s_ratio_poster/public/p2679701864.jpg", "id": "35584330", "cover_y": 585, "is_new": true, "directed_by": "马克西姆·布里乌斯"}
,{"episodes_info": "", "rate": "7.7", "cover_x": 595, "title": "伟大的自由", "url": "https://movie.douban.com/subject/35477174/", "playable": false, "cover_img": ["https://img1.doubanio.com/view/photo/s_ratio_poster/public/p2690027917.jpg"], "cover": "https://img1.doubanio.com/view/photo/s_ratio_poster/public/p2690027917.jpg", "id": "35477174", "cover_y": 842, "is_new": true, "directed_by": "塞巴斯蒂安·迈泽"}
,{"episodes_info": "", "rate": "7.2", "cover_x": 900, "title": "义犬救主", "url": "https://movie.douban.com/subject/35377090/", "playable": false, "cover_img": ["https://img2.doubanio.com/view/photo/s_ratio_poster/public/p2869957662.jpg"], "cover": "https://img2.doubanio.com/view/photo/s_ratio_poster/public/p2869957662.jpg", "id": "35377090", "cover_y": 1350, "is_new": true, "directed_by": "凯特·西亚"}
,{"episodes_info": "", "rate": "8.1", "cover_x": 815, "title": "星期四", "url": "https://movie.douban.com/subject/35774719/", "playable": false, "cover_img": ["https://img9.doubanio.com/view/photo/s_ratio_poster/public/p2868457745.jpg"], "cover": "https://img9.doubanio.com/view/photo/s_ratio_poster/public/p2868457745.jpg", "id": "35774719", "cover_y": 1164, "is_new": true, "directed_by": "毕查德·汉巴塔"}
,{"episodes_info": "", "rate": "6.8", "cover_x": 2000, "title": "蜘蛛侠：英雄无归", "url": "https://movie.douban.com/subject/26933210/", "playable": false, "cover_img": ["https://img9.doubanio.com/view/photo/s_ratio_poster/public/p2730024046.jpg"], "cover": "https://img9.doubanio.com/view/photo/s_ratio_poster/public/p2730024046.jpg", "id": "26933210", "cover_y": 2964, "is_new": false, "directed_by": "乔·沃茨"}
,{"episodes_info": "", "rate": "8.3", "cover_x": 8268, "title": "雄狮少年", "url": "https://movie.douban.com/subject/35144311/", "playable": true, "cover_img": ["https://img1.doubanio.com/view/photo/s_ratio_poster/public/p2702755317.jpg"], "cover": "https://img1.doubanio.com/view/photo/s_ratio_poster/public/p2702755317.jpg", "id": "35144311", "cover_y": 11576, "is_new": false, "directed_by": "孙海鹏"}
,{"episodes_info": "", "rate": "8.2", "cover_x": 1500, "title": "倒数时刻", "url": "https://movie.douban.com/subject/30279170/", "playable": false, "cover_img": ["https://img9.doubanio.com/view/photo/s_ratio_poster/public/p2690712224.jpg"], "cover": "https://img9.doubanio.com/view/photo/s_ratio_poster/public/p2690712224.jpg", "id": "30279170", "cover_y": 2222, "is_new": false, "directed_by": "林-曼努尔·米兰达"}
,{"episodes_info": "", "rate": "8.0", "cover_x": 2000, "title": "天鹅挽歌", "url": "https://movie.douban.com/subject/35258381/", "playable": false, "cover_img": ["https://img9.doubanio.com/view/photo/s_ratio_poster/public/p2717809625.jpg"], "cover": "https://img9.doubanio.com/view/photo/s_ratio_poster/public/p2717809625.jpg", "id": "35258381", "cover_y": 3000, "is_new": false, "directed_by": "本杰明·克利里"}
,{"episodes_info": "", "rate": "6.9", "cover_x": 4320, "title": "甘草披萨", "url": "https://movie.douban.com/subject/34888057/", "playable": false, "cover_img": ["https://img1.doubanio.com/view/photo/s_ratio_poster/public/p2687662638.jpg"], "cover": "https://img1.doubanio.com/view/photo/s_ratio_poster/public/p2687662638.jpg", "id": "34888057", "cover_y": 6400, "is_new": false, "directed_by": "保罗·托马斯·安德森"}
,{"episodes_info": "", "rate": "5.3", "cover_x": 770, "title": "王牌特工：源起", "url": "https://movie.douban.com/subject/27038228/", "playable": false, "cover_img": ["https://img1.doubanio.com/view/photo/s_ratio_poster/public/p2614322167.jpg"], "cover": "https://img1.doubanio.com/view/photo/s_ratio_poster/public/p2614322167.jpg", "id": "27038228", "cover_y": 1100, "is_new": false, "directed_by": "马修·沃恩"}
,{"episodes_info": "", "rate": "6.8", "cover_x": 2765, "title": "玉面情魔", "url": "https://movie.douban.com/subject/27605105/", "playable": false, "cover_img": ["https://img1.doubanio.com/view/photo/s_ratio_poster/public/p2757579107.jpg"], "cover": "https://img1.doubanio.com/view/photo/s_ratio_poster/public/p2757579107.jpg", "id": "27605105", "cover_y": 4096, "is_new": false, "directed_by": "吉尔莫·德尔·托罗"}
,{"episodes_info": "", "rate": "7.3", "cover_x": 2430, "title": "杨之后", "url": "https://movie.douban.com/subject/30475837/", "playable": false, "cover_img": ["https://img3.doubanio.com/view/photo/s_ratio_poster/public/p2867419800.jpg"], "cover": "https://img3.doubanio.com/view/photo/s_ratio_poster/public/p2867419800.jpg", "id": "30475837", "cover_y": 3600, "is_new": false, "directed_by": "郭共达"}
,{"episodes_info": "", "rate": "6.3", "cover_x": 1334, "title": "新鲜", "url": "https://movie.douban.com/subject/35202363/", "playable": false, "cover_img": ["https://img9.doubanio.com/view/photo/s_ratio_poster/public/p2868322956.jpg"], "cover": "https://img9.doubanio.com/view/photo/s_ratio_poster/public/p2868322956.jpg", "id": "35202363", "cover_y": 2000, "is_new": false, "directed_by": "米米·凯夫"}
,{"episodes_info": "", "rate": "7.6", "cover_x": 1448, "title": "瀑布", "url": "https://movie.douban.com/subject/35242938/", "playable": false, "cover_img": ["https://img2.doubanio.com/view/photo/s_ratio_poster/public/p2678037153.jpg"], "cover": "https://img2.doubanio.com/view/photo/s_ratio_poster/public/p2678037153.jpg", "id": "35242938", "cover_y": 2048, "is_new": false, "directed_by": "钟孟宏"}
,{"episodes_info": "", "rate": "8.4", "cover_x": 720, "title": "芬奇", "url": "https://movie.douban.com/subject/26897885/", "playable": true, "cover_img": ["https://img1.doubanio.com/view/photo/s_ratio_poster/public/p2721066869.jpg"], "cover": "https://img1.doubanio.com/view/photo/s_ratio_poster/public/p2721066869.jpg", "id": "26897885", "cover_y": 1080, "is_new": false, "directed_by": "米格尔·萨普什尼克"}
,{"episodes_info": "", "rate": "7.4", "cover_x": 1080, "title": "美国女孩", "url": "https://movie.douban.com/subject/30359376/", "playable": false, "cover_img": ["https://img2.doubanio.com/view/photo/s_ratio_poster/public/p2703935581.jpg"], "cover": "https://img2.doubanio.com/view/photo/s_ratio_poster/public/p2703935581.jpg", "id": "30359376", "cover_y": 1544, "is_new": false, "directed_by": "阮凤仪"}
,{"episodes_info": "", "rate": "7.9", "cover_x": 595, "title": "世界上最糟糕的人", "url": "https://movie.douban.com/subject/34447553/", "playable": false, "cover_img": ["https://img9.doubanio.com/view/photo/s_ratio_poster/public/p2668815075.jpg"], "cover": "https://img9.doubanio.com/view/photo/s_ratio_poster/public/p2668815075.jpg", "id": "34447553", "cover_y": 842, "is_new": false, "directed_by": "约阿希姆·提尔"}
,{"episodes_info": "", "rate": "7.8", "cover_x": 1500, "title": "犬之力", "url": "https://movie.douban.com/subject/33437152/", "playable": false, "cover_img": ["https://img1.doubanio.com/view/photo/s_ratio_poster/public/p2678298618.jpg"], "cover": "https://img1.doubanio.com/view/photo/s_ratio_poster/public/p2678298618.jpg", "id": "33437152", "cover_y": 2222, "is_new": false, "directed_by": "简·坎皮恩"}
,{"episodes_info": "", "rate": "7.7", "cover_x": 595, "title": "伟大的自由", "url": "https://movie.douban.com/subject/35477174/", "playable": false, "cover_img": ["https://img1.doubanio.com/view/photo/s_ratio_poster/public/p2690027917.jpg"], "cover": "https://img1.doubanio.com/view/photo/s_ratio_poster/public/p2690027917.jpg", "id": "35477174", "cover_y": 842, "is_new": true, "directed_by": "塞巴斯蒂安·迈泽"}
,{"episodes_info": "", "rate": "6.3", "cover_x": 1500, "title": "亚当计划", "url": "https://movie.douban.com/subject/34970181/", "playable": false, "cover_img": ["https://img2.doubanio.com/view/photo/s_ratio_poster/public/p2869545761.jpg"], "cover": "https://img2.doubanio.com/view/photo/s_ratio_poster/public/p2869545761.jpg", "id": "34970181", "cover_y": 2222, "is_new": false, "directed_by": "肖恩·利维"}
,{"episodes_info": "", "rate": "7.9", "cover_x": 2000, "title": "驾驶我的车", "url": "https://movie.douban.com/subject/35235502/", "playable": false, "cover_img": ["https://img2.doubanio.com/view/photo/s_ratio_poster/public/p2639821491.jpg"], "cover": "https://img2.doubanio.com/view/photo/s_ratio_poster/public/p2639821491.jpg", "id": "35235502", "cover_y": 2829, "is_new": false, "directed_by": "滨口龙介"}
,{"episodes_info": "", "rate": "8.3", "cover_x": 400, "title": "烈日阳光", "url": "https://movie.douban.com/subject/35584330/", "playable": false, "cover_img": ["https://img9.doubanio.com/view/photo/s_ratio_poster/public/p2679701864.jpg"], "cover": "https://img9.doubanio.com/view/photo/s_ratio_poster/public/p2679701864.jpg", "id": "35584330", "cover_y": 585, "is_new": true, "directed_by": "马克西姆·布里乌斯"}
,{"episodes_info": "", "rate": "7.2", "cover_x": 900, "title": "义犬救主", "url": "https://movie.douban.com/subject/35377090/", "playable": false, "cover_img": ["https://img2.doubanio.com/view/photo/s_ratio_poster/public/p2869957662.jpg"], "cover": "https://img2.doubanio.com/view/photo/s_ratio_poster/public/p2869957662.jpg", "id": "35377090", "cover_y": 1350, "is_new": true, "directed_by": "凯特·西亚"}
,{"episodes_info": "", "rate": "7.8", "cover_x": 4048, "title": "法兰西特派", "url": "https://movie.douban.com/subject/30300279/", "playable": false, "cover_img": ["https://img9.doubanio.com/view/photo/s_ratio_poster/public/p2586398074.jpg"], "cover": "https://img9.doubanio.com/view/photo/s_ratio_poster/public/p2586398074.jpg", "id": "30300279", "cover_y": 6285, "is_new": false, "directed_by": "韦斯·安德森"}
,]